-------------------------------------------------------------------------------
Test set: TestException
-------------------------------------------------------------------------------
Tests run: 1, Failures: 0, Errors: 0, Skipped: 0, Time elapsed: 0.08 s - in TestException
