D:\Cours\Assurance qualite et maintenance\semaine1-argman\Tests\ArgManTest1.java
D:\Cours\Assurance qualite et maintenance\semaine1-argman\Tests\TestException.java
D:\Cours\Assurance qualite et maintenance\semaine1-argman\Tests\ExceptionTest.java
D:\Cours\Assurance qualite et maintenance\semaine1-argman\Tests\ArgManTest2.java
D:\Cours\Assurance qualite et maintenance\semaine1-argman\Tests\ArgManTest3.java
